{
  "project_info": {
    "project_number": "886001679987",
    "firebase_url": "https://flashbid-dev.firebaseio.com",
    "project_id": "flashbid-dev",
    "storage_bucket": "flashbid-dev.appspot.com"
  },
  "client": [
    {
      "client_info": {
        "mobilesdk_app_id": "1:886001679987:android:0e5995ac83314fec",
        "android_client_info": {
          "package_name": "com.flashbid.flashcoinapp"
        }
      },
      "oauth_client": [
        {
          "client_id": "886001679987-9h70ld5brolma1onjo0vhc3rca03kbg1.apps.googleusercontent.com",
          "client_type": 3
        }
      ],
      "api_key": [
        {
          "current_key": "AIzaSyAZU0wZxsi7InPGqBhd5y73gEJ-xN0aHWc"
        }
      ],
      "services": {
        "analytics_service": {
          "status": 1
        },
        "appinvite_service": {
          "status": 1,
          "other_platform_oauth_client": []
        },
        "ads_service": {
          "status": 2
        }
      }
    }
  ],
  "configuration_version": "1"
}